IS415-GAA - Take-home_Ex01
…
# Remove specific problematic entries for 2024 Q3 and Q4
conflict_list <- conflict_list[!names(conflict_list) %in% c("conflict_2024.Q3_sf", "conflict_2024.Q4_sf")]

In order to read the sf of 2021 q1:

conflict_list[["conflict_2021.Q1_sf"]]

Simple feature collection with 4843 features and 32 fields
Geometry type: POINT
Dimension:     XY
Bounding box:  xmin: -203795.3 ymin: 1103500 xmax: 591875.9 ymax: 3042960
Projected CRS: WGS 84 / UTM zone 47N
# A tibble: 4,843 × 33
   event_id_cnty event_date  year time_precision disorder_type        event_type
 * <chr>         <date>     <dbl>          <dbl> <chr>                <chr>     
 1 MMR14614      2021-03-31  2021              1 Political violence   Explosion…
 2 MMR14614      2021-03-31  2021              1 Political violence   Explosion…
 3 MMR14632      2021-03-31  2021              1 Strategic developme… Strategic…
 4 MMR14632      2021-03-31  2021              1 Strategic developme… Strategic…
 5 MMR14625      2021-03-31  2021              1 Political violence   Battles   
 6 MMR14625      2021-03-31  2021              1 Political violence   Battles   
 7 MMR14609      2021-03-31  2021              1 Political violence   Violence …
 8 MMR14609      2021-03-31  2021              1 Political violence   Violence …
 9 MMR14618      2021-03-31  2021              1 Strategic developme… Strategic…
10 MMR14653      2021-03-31  2021              1 Political violence   Violence …
# ℹ 4,833 more rows
# ℹ 27 more variables: sub_event_type <chr>, actor1 <chr>, assoc_actor_1 <chr>,
#   inter1 <dbl>, interaction <dbl>, civilian_targeting <chr>, iso <dbl>,
#   region <chr>, country <chr>, admin1 <chr>, admin2 <chr>, admin3 <chr>,
#   location <chr>, geo_precision <dbl>, source <chr>, source_scale <chr>,
#   notes <chr>, fatalities <dbl>, tags <chr>, timestamp <dbl>,
#   geometry <POINT [m]>, DayofYear <dbl>, Month_num <dbl>, Month_fac <ord>, …
…
